{
    "project_type": "javascript",

    "debugMode" : 0,
    "showFPS" : false,
    "frameRate" : 60,
    "id" : "gameCanvas",
    "renderMode" : 0,
    "engineDir":"frameworks/cocos2d-html5",

    "modules" : ["cocos2d","extensions"],

    "jsList" : [
        "src/resource.js",
        "src/MainMenu.js",
        "src/GameLayer.js",
        "src/GameOver.js",
        "src/Background.js",
        "src/Snowflake.js",
        "src/Character.js",
        "src/IceSpike.js",
        "src/FireBall.js",
        "src/DarkStorm.js",
        "src/Anchor.js",
        "src/Enemy.js",
        "src/Potion.js"
    ]
}
